{
  "images" : [
    {
      "filename" : "app-background_360x640.png",
      "idiom" : "universal",
      "scale" : "1x"
    },
    {
      "filename" : "app-background_720x1280.jpg",
      "idiom" : "universal",
      "scale" : "2x"
    },
    {
      "filename" : "app-background_1125x2436.jpg",
      "idiom" : "universal",
      "scale" : "3x"
    },
    {
      "filename" : "app-background_2048x2732-min (2).png",
      "idiom" : "ipad",
      "scale" : "1x"
    },
    {
      "filename" : "app-background_2048x2732-min (2)-1.png",
      "idiom" : "ipad",
      "scale" : "2x"
    }
  ],
  "info" : {
    "author" : "xcode",
    "version" : 1
  }
}
