{
  "images" : [
    {
      "filename" : "app-background_360x640-min.png",
      "idiom" : "universal",
      "scale" : "1x"
    },
    {
      "filename" : "app-background_720x1280-min.png",
      "idiom" : "universal",
      "scale" : "2x"
    },
    {
      "filename" : "app-background_1440x2560-min.png",
      "idiom" : "universal",
      "scale" : "3x"
    },
    {
      "idiom" : "ipad",
      "scale" : "1x"
    },
    {
      "filename" : "app-background_2048x2732-min.png",
      "idiom" : "ipad",
      "scale" : "2x"
    }
  ],
  "info" : {
    "author" : "xcode",
    "version" : 1
  }
}
