{
  "images" : [
    {
      "filename" : "BackgroundImage360-min.png",
      "idiom" : "universal",
      "scale" : "1x"
    },
    {
      "filename" : "BackgroundImage720-min.png",
      "idiom" : "universal",
      "scale" : "2x"
    },
    {
      "filename" : "puzzle-min.png",
      "idiom" : "universal",
      "scale" : "3x"
    },
    {
      "filename" : "BackgroundImage2048-min.png",
      "idiom" : "ipad",
      "scale" : "1x"
    },
    {
      "filename" : "BackgroundImage2048-min-1.png",
      "idiom" : "ipad",
      "scale" : "2x"
    }
  ],
  "info" : {
    "author" : "xcode",
    "version" : 1
  }
}
